{
  "name": "rails-assets-utatti-perfect-scrollbar",
  "downloads": null,
  "version": "1.5.5",
  "version_downloads": null,
  "platform": "ruby",
  "authors": "rails-assets.org",
  "info": "",
  
  "metadata": {

  },
  "sha": null,
  "project_uri": "https://github.com/utatti/perfect-scrollbar",
  "gem_uri": null,
  "homepage_uri": "https://github.com/utatti/perfect-scrollbar",
  "wiki_uri": null,
  "documentation_uri": null,
  "mailing_list_uri": null,
  "source_code_uri": "https://github.com/utatti/perfect-scrollbar",
  "bug_tracker_uri": null,
  "dependencies": {
    "development": [
    
    ],
    "runtime": [

    ]
  }
}
